<?xml version="1.0" encoding="UTF-8" standalone="no"?>
<!-- Created with Inkscape (http://www.inkscape.org/) -->

<svg
   xmlns:dc="http://purl.org/dc/elements/1.1/"
   xmlns:cc="http://creativecommons.org/ns#"
   xmlns:rdf="http://www.w3.org/1999/02/22-rdf-syntax-ns#"
   xmlns:svg="http://www.w3.org/2000/svg"
   xmlns="http://www.w3.org/2000/svg"
   xmlns:sodipodi="http://sodipodi.sourceforge.net/DTD/sodipodi-0.dtd"
   xmlns:inkscape="http://www.inkscape.org/namespaces/inkscape"
   width="135px"
   height="135px"
   viewBox="0 0 135 135"
   version="1.1"
   id="SVGRoot"
   inkscape:version="0.92.2 (5c3e80d, 2017-08-06)"
   sodipodi:docname="Logo2.svg">
  <title
     id="title5688">Edenbound Logo</title>
  <sodipodi:namedview
     id="base"
     pagecolor="#ffffff"
     bordercolor="#666666"
     borderopacity="1.0"
     inkscape:pageopacity="0.0"
     inkscape:pageshadow="2"
     inkscape:zoom="5.6568542"
     inkscape:cx="62.966931"
     inkscape:cy="65.592818"
     inkscape:document-units="px"
     inkscape:current-layer="layer1"
     showgrid="false"
     inkscape:window-width="1920"
     inkscape:window-height="1018"
     inkscape:window-x="-8"
     inkscape:window-y="-8"
     inkscape:window-maximized="1"
     inkscape:grid-bbox="true" />
  <defs
     id="defs5055">
    <inkscape:path-effect
       effect="mirror_symmetry"
       start_point="107.53221,67.5"
       end_point="107.53221,67.5"
       center_point="107.53221,67.5"
       id="path-effect839"
       is_visible="true"
       mode="horizontal"
       discard_orig_path="false"
       fuse_paths="false"
       oposite_fuse="false" />
    <inkscape:path-effect
       effect="mirror_symmetry"
       start_point="0,67.5"
       end_point="135,67.5"
       center_point="67.5,67.5"
       id="path-effect5686"
       is_visible="true"
       mode="horizontal"
       discard_orig_path="false"
       fuse_paths="false"
       oposite_fuse="false" />
    <inkscape:path-effect
       effect="mirror_symmetry"
       start_point="0,67.5"
       end_point="135,67.5"
       center_point="67.5,67.5"
       id="path-effect5682"
       is_visible="true"
       mode="horizontal"
       discard_orig_path="false"
       fuse_paths="false"
       oposite_fuse="false" />
    <inkscape:path-effect
       oposite_fuse="false"
       fuse_paths="false"
       discard_orig_path="false"
       mode="horizontal"
       is_visible="true"
       id="path-effect5680"
       center_point="67.5,67.5"
       end_point="135,67.5"
       start_point="0,67.5"
       effect="mirror_symmetry" />
    <inkscape:path-effect
       effect="mirror_symmetry"
       start_point="0,67.5"
       end_point="135,67.5"
       center_point="67.5,67.5"
       id="path-effect5676"
       is_visible="true"
       mode="horizontal"
       discard_orig_path="false"
       fuse_paths="false"
       oposite_fuse="false" />
    <inkscape:path-effect
       effect="mirror_symmetry"
       start_point="0,67.5"
       end_point="135,67.5"
       center_point="67.5,67.5"
       id="path-effect5674"
       is_visible="true"
       mode="horizontal"
       discard_orig_path="false"
       fuse_paths="false"
       oposite_fuse="false" />
    <inkscape:path-effect
       effect="mirror_symmetry"
       start_point="0,67.5"
       end_point="135,67.5"
       center_point="67.5,67.5"
       id="path-effect5672"
       is_visible="true"
       mode="horizontal"
       discard_orig_path="false"
       fuse_paths="false"
       oposite_fuse="false" />
    <inkscape:path-effect
       effect="mirror_symmetry"
       start_point="0,67.5"
       end_point="135,67.5"
       center_point="67.5,67.5"
       id="path-effect5670"
       is_visible="true"
       mode="horizontal"
       discard_orig_path="false"
       fuse_paths="false"
       oposite_fuse="false" />
    <inkscape:path-effect
       effect="mirror_symmetry"
       start_point="0,67.5"
       end_point="135,67.5"
       center_point="67.5,67.5"
       id="path-effect5668"
       is_visible="true"
       mode="horizontal"
       discard_orig_path="false"
       fuse_paths="false"
       oposite_fuse="false" />
    <inkscape:path-effect
       effect="mirror_symmetry"
       start_point="0,67.5"
       end_point="135,67.5"
       center_point="67.5,67.5"
       id="path-effect5658"
       is_visible="true"
       mode="horizontal"
       discard_orig_path="false"
       fuse_paths="false"
       oposite_fuse="false" />
  </defs>
  <metadata
     id="metadata5058">
    <rdf:RDF>
      <cc:Work
         rdf:about="">
        <dc:format>image/svg+xml</dc:format>
        <dc:type
           rdf:resource="http://purl.org/dc/dcmitype/StillImage" />
        <dc:title>Edenbound Logo</dc:title>
      </cc:Work>
    </rdf:RDF>
  </metadata>
  <g
     id="layer1"
     inkscape:groupmode="layer"
     inkscape:label="Layer 1">
    <circle
       style="opacity:1;vector-effect:none;fill:none;fill-opacity:1;fill-rule:evenodd;stroke:#333333;stroke-width:6;stroke-linecap:butt;stroke-linejoin:round;stroke-miterlimit:4;stroke-dasharray:none;stroke-dashoffset:0;stroke-opacity:1"
       id="path5656"
       cx="67.5"
       cy="67.5"
       r="63.515144" />
    <path
       sodipodi:nodetypes="cc"
       inkscape:connector-curvature="0"
       id="path5622"
       d="m 69.072059,17.714779 c -24.064895,0 -31.422243,19.953076 -31.422243,49.785221 m 31.422243,49.78522 C 45.007164,117.28522 37.649816,97.332145 37.649816,67.5"
       style="fill:none;fill-rule:evenodd;stroke:#333333;stroke-width:6;stroke-linecap:butt;stroke-linejoin:miter;stroke-miterlimit:4;stroke-dasharray:none;stroke-opacity:1"
       inkscape:path-effect="#path-effect5668"
       inkscape:original-d="M 69.072059,17.714779 C 45.007164,17.714779 37.649816,37.667855 37.649816,67.5" />
    <path
       style="fill:none;fill-rule:evenodd;stroke:#333333;stroke-width:6;stroke-linecap:butt;stroke-linejoin:miter;stroke-miterlimit:4;stroke-dasharray:none;stroke-opacity:1"
       d="M 3.5319136,67.5 H 107.53221 m 0,0 v 0"
       id="path5626"
       inkscape:connector-curvature="0"
       sodipodi:nodetypes="cc"
       inkscape:path-effect="#path-effect839"
       inkscape:original-d="M 3.5319136,67.5 H 107.53221" />
    <path
       style="fill:none;fill-rule:evenodd;stroke:#333333;stroke-width:6;stroke-linecap:butt;stroke-linejoin:miter;stroke-miterlimit:4;stroke-dasharray:none;stroke-opacity:1"
       d="M 101.81235,11.773715 C 96.553563,31.399763 79.134547,17.714779 69.072059,17.714779 90.151271,23.362936 86.159225,30.5586 86.159225,38.768187 M 101.81235,123.22629 C 96.553563,103.60024 79.134547,117.28522 69.072059,117.28522 90.151271,111.63706 86.159225,104.4414 86.159225,96.231813"
       id="path5638"
       inkscape:connector-curvature="0"
       sodipodi:nodetypes="ccc"
       inkscape:path-effect="#path-effect5670"
       inkscape:original-d="M 101.81235,11.773715 C 96.553563,31.399763 79.134547,17.714779 69.072059,17.714779 90.151271,23.362936 86.159225,30.5586 86.159225,38.768187" />
    <path
       style="fill:none;fill-rule:evenodd;stroke:#333333;stroke-width:6;stroke-linecap:butt;stroke-linejoin:miter;stroke-miterlimit:4;stroke-dasharray:none;stroke-opacity:1"
       d="m 97.761281,38.602166 c 0,9.994607 -11.602056,8.786883 -11.602056,0.166021 0,8.729547 -11.974211,9.072988 -11.974211,-0.184631 m 23.576267,57.814278 c 0,-9.994607 -11.602056,-8.786883 -11.602056,-0.166021 0,-8.729547 -11.974211,-9.072988 -11.974211,0.184631"
       id="path5642"
       inkscape:connector-curvature="0"
       sodipodi:nodetypes="ccc"
       inkscape:path-effect="#path-effect5672"
       inkscape:original-d="m 97.761281,38.602166 c 0,9.994607 -11.602056,8.786883 -11.602056,0.166021 0,8.729547 -11.974211,9.072988 -11.974211,-0.184631" />
    <path
       style="fill:none;fill-rule:evenodd;stroke:#333333;stroke-width:6;stroke-linecap:butt;stroke-linejoin:miter;stroke-miterlimit:4;stroke-dasharray:none;stroke-opacity:1"
       d="m 107.65701,48.202642 c 15.48664,0 15.53031,19.297358 -0.1248,19.297358 m 0.1248,19.297358 c 15.48664,0 15.53031,-19.297358 -0.1248,-19.297358"
       id="path5684"
       inkscape:connector-curvature="0"
       inkscape:path-effect="#path-effect5686"
       inkscape:original-d="m 107.65701,48.202642 c 15.48664,0 15.53031,19.297358 -0.1248,19.297358"
       sodipodi:nodetypes="cc" />
  </g>
</svg>
