<?xml version="1.0" encoding="UTF-8" standalone="no"?>
<!-- Created with Inkscape (http://www.inkscape.org/) -->

<svg
   xmlns:dc="http://purl.org/dc/elements/1.1/"
   xmlns:cc="http://creativecommons.org/ns#"
   xmlns:rdf="http://www.w3.org/1999/02/22-rdf-syntax-ns#"
   xmlns:svg="http://www.w3.org/2000/svg"
   xmlns="http://www.w3.org/2000/svg"
   xmlns:sodipodi="http://sodipodi.sourceforge.net/DTD/sodipodi-0.dtd"
   xmlns:inkscape="http://www.inkscape.org/namespaces/inkscape"
   width="32"
   height="32"
   viewBox="0 0 8.4666659 8.4666669"
   version="1.1"
   id="svg8"
   inkscape:version="0.92.3 (2405546, 2018-03-11)"
   sodipodi:docname="symbol-action-selected.svg">
  <defs
     id="defs2" />
  <sodipodi:namedview
     id="base"
     pagecolor="#ffffff"
     bordercolor="#666666"
     borderopacity="1.0"
     inkscape:pageopacity="0.0"
     inkscape:pageshadow="2"
     inkscape:zoom="16"
     inkscape:cx="4.640495"
     inkscape:cy="20.84533"
     inkscape:document-units="mm"
     inkscape:current-layer="layer1"
     showgrid="false"
     units="px"
     inkscape:pagecheckerboard="true"
     inkscape:window-width="1920"
     inkscape:window-height="1018"
     inkscape:window-x="-8"
     inkscape:window-y="-8"
     inkscape:window-maximized="1" />
  <metadata
     id="metadata5">
    <rdf:RDF>
      <cc:Work
         rdf:about="">
        <dc:format>image/svg+xml</dc:format>
        <dc:type
           rdf:resource="http://purl.org/dc/dcmitype/StillImage" />
        <dc:title></dc:title>
      </cc:Work>
    </rdf:RDF>
  </metadata>
  <g
     inkscape:label="Layer 1"
     inkscape:groupmode="layer"
     id="layer1"
     transform="translate(0,-288.53332)">
    <g
       transform="rotate(45,1.6984584,289.79605)"
       id="g841">
      <path
         style="fill:none;fill-rule:evenodd;stroke:#ffffff;stroke-width:0.48418626px;stroke-linecap:butt;stroke-linejoin:miter;stroke-opacity:1"
         d="m 0.37806373,289.32092 0.78680307,0.78679 -0.77167227,0.77167"
         id="path837"
         inkscape:connector-curvature="0" />
      <path
         inkscape:connector-curvature="0"
         id="path839"
         d="m 1.4882812,289.67434 0.429948,0.42994 -0.4216797,0.42168"
         style="fill:none;fill-rule:evenodd;stroke:#ffffff;stroke-width:0.26458332px;stroke-linecap:butt;stroke-linejoin:miter;stroke-opacity:1" />
    </g>
    <g
       id="g847"
       transform="rotate(135,4.3561872,291.14251)">
      <path
         inkscape:connector-curvature="0"
         id="path843"
         d="m 0.37806373,289.32092 0.78680307,0.78679 -0.77167227,0.77167"
         style="fill:none;fill-rule:evenodd;stroke:#ffffff;stroke-width:0.48418626px;stroke-linecap:butt;stroke-linejoin:miter;stroke-opacity:1" />
      <path
         style="fill:none;fill-rule:evenodd;stroke:#ffffff;stroke-width:0.26458332px;stroke-linecap:butt;stroke-linejoin:miter;stroke-opacity:1"
         d="m 1.4882812,289.67434 0.429948,0.42994 -0.4216797,0.42168"
         id="path845"
         inkscape:connector-curvature="0" />
    </g>
    <g
       transform="rotate(-135,5.4637961,291.71674)"
       id="g853">
      <path
         style="fill:none;fill-rule:evenodd;stroke:#ffffff;stroke-width:0.48418626px;stroke-linecap:butt;stroke-linejoin:miter;stroke-opacity:1"
         d="m 0.37806373,289.32092 0.78680307,0.78679 -0.77167227,0.77167"
         id="path849"
         inkscape:connector-curvature="0" />
      <path
         inkscape:connector-curvature="0"
         id="path851"
         d="m 1.4882812,289.67434 0.429948,0.42994 -0.4216797,0.42168"
         style="fill:none;fill-rule:evenodd;stroke:#ffffff;stroke-width:0.26458332px;stroke-linecap:butt;stroke-linejoin:miter;stroke-opacity:1" />
    </g>
    <g
       id="g859"
       transform="rotate(-45,8.1542588,293.06313)">
      <path
         inkscape:connector-curvature="0"
         id="path855"
         d="m 0.37806373,289.32092 0.78680307,0.78679 -0.77167227,0.77167"
         style="fill:none;fill-rule:evenodd;stroke:#ffffff;stroke-width:0.48418626px;stroke-linecap:butt;stroke-linejoin:miter;stroke-opacity:1" />
      <path
         style="fill:none;fill-rule:evenodd;stroke:#ffffff;stroke-width:0.26458332px;stroke-linecap:butt;stroke-linejoin:miter;stroke-opacity:1"
         d="m 1.4882812,289.67434 0.429948,0.42994 -0.4216797,0.42168"
         id="path857"
         inkscape:connector-curvature="0" />
    </g>
  </g>
</svg>
